* * * * * * * * * * * * * * * Reading complete, hit anykey to continue print 

Print Column in the following order: 

Duty, PD0, PE1, PD2, PD3 

refV = 3924
0,  4.81,  2.75,  1.19,  1.94 
1,  39.69,  38.88,  0.19,  0.88 
2,  76.00,  77.50,  0.12,  1.06 
3,  115.94,  116.31,  0.38,  1.38 
4,  152.38,  154.12,  0.88,  1.69 
5,  192.88,  193.19,  0.38,  0.94 
6,  231.88,  233.00,  0.50,  1.25 
7,  272.31,  270.62,  0.50,  2.38 
8,  312.06,  309.69,  0.44,  1.19 
9,  352.12,  350.06,  2.06,  1.00 
10,  392.38,  390.75,  1.56,  0.62 
11,  430.56,  432.44,  2.50,  2.56 
12,  468.19,  470.38,  1.31,  0.75 
13,  508.56,  508.06,  1.44,  1.81 
14,  546.81,  547.06,  1.88,  2.12 
15,  584.81,  584.06,  0.44,  0.81 
16,  623.75,  624.12,  0.88,  0.94 
17,  663.81,  663.75,  1.50,  1.69 
18,  704.62,  702.75,  1.25,  1.94 
19,  744.88,  743.94,  0.81,  1.31 
20,  784.25,  782.62,  0.81,  1.38 
21,  821.94,  821.50,  0.69,  0.75 
22,  861.12,  860.25,  0.75,  0.69 
23,  897.69,  897.38,  1.06,  1.19 
24,  934.75,  933.81,  1.06,  0.69 
25,  971.69,  973.31,  1.75,  1.69 
26,  1012.75,  1014.06,  1.62,  1.00 
27,  1055.88,  1053.69,  1.44,  1.06 
28,  1096.50,  1095.25,  1.94,  1.44 
29,  1136.75,  1135.38,  3.44,  1.12 
30,  1176.56,  1174.81,  3.69,  1.81 
31,  1214.50,  1212.94,  3.19,  0.62 
32,  1253.94,  1251.88,  3.56,  1.56 
33,  1290.31,  1289.00,  2.81,  0.88 
34,  1327.19,  1325.19,  4.00,  1.56 
35,  1365.75,  1364.31,  3.19,  1.62 
36,  1407.50,  1402.88,  1.62,  1.12 
37,  1449.12,  1443.31,  2.12,  1.62 
38,  1489.00,  1485.25,  1.50,  1.25 
39,  1529.38,  1526.19,  1.75,  2.06 
40,  1569.00,  1566.12,  2.00,  1.12 
41,  1608.00,  1604.94,  2.62,  1.12 
42,  1646.12,  1641.94,  3.31,  1.06 
43,  1682.00,  1678.44,  4.00,  0.94 
44,  1718.88,  1717.25,  4.00,  1.06 
45,  1757.81,  1753.50,  4.06,  1.62 
46,  1796.25,  1791.50,  3.44,  1.94 
47,  1837.25,  1835.50,  2.69,  1.50 
48,  1879.06,  1876.44,  3.50,  1.44 
49,  1920.19,  1917.44,  3.19,  1.75 
50,  1961.19,  1957.06,  3.31,  1.69 
51,  2000.88,  1994.88,  2.69,  1.69 
52,  2038.69,  2031.94,  3.94,  1.88 
53,  2077.25,  2068.81,  5.12,  1.88 
54,  2112.62,  2110.94,  5.12,  0.69 
55,  2150.81,  2148.25,  4.88,  2.25 
56,  2188.62,  2185.00,  5.19,  1.19 
57,  2230.88,  2226.44,  5.00,  1.31 
58,  2271.38,  2266.50,  4.44,  1.50 
59,  2312.19,  2307.38,  5.12,  1.88 
60,  2352.25,  2346.00,  5.75,  1.25 
61,  2390.00,  2384.38,  5.25,  1.31 
62,  2426.75,  2422.25,  7.31,  1.50 
63,  2463.38,  2458.44,  6.38,  0.94 
64,  2502.25,  2494.50,  8.56,  1.25 
65,  2541.00,  2532.88,  7.69,  1.44 
66,  2580.19,  2573.12,  6.94,  2.19 
67,  2623.00,  2614.00,  5.94,  1.19 
68,  2663.38,  2656.19,  5.25,  1.06 
69,  2702.75,  2696.44,  5.19,  0.88 
70,  2743.69,  2736.62,  5.88,  1.75 
71,  2781.75,  2774.31,  6.44,  1.31 
72,  2820.44,  2812.19,  11.06,  2.25 
73,  2855.94,  2848.81,  13.25,  1.62 
74,  2896.38,  2886.62,  11.19,  1.62 
75,  2935.44,  2926.19,  9.88,  1.25 
76,  2973.06,  2964.75,  9.75,  1.06 
77,  3013.31,  3004.44,  8.44,  1.31 
78,  3054.38,  3046.88,  6.56,  0.19 
79,  3094.56,  3087.00,  7.06,  1.56 
80,  3133.56,  3126.69,  7.38,  1.38 
81,  3172.50,  3163.69,  7.19,  1.88 
82,  3211.44,  3202.50,  7.19,  1.25 
83,  3249.12,  3240.75,  8.12,  1.38 
84,  3287.19,  3278.44,  9.75,  3.31 
85,  3325.00,  3317.25,  8.31,  0.81 
86,  3362.94,  3354.31,  7.94,  1.75 
87,  3403.94,  3393.25,  7.25,  0.81 
88,  3445.38,  3433.50,  7.19,  1.19 
89,  3484.25,  3474.94,  7.00,  0.88 
90,  3522.56,  3515.25,  6.75,  1.12 
91,  3561.62,  3555.69,  7.56,  1.44 
92,  3602.62,  3595.25,  8.56,  1.69 
93,  3641.62,  3633.19,  9.25,  1.56 
94,  3680.38,  3672.19,  9.75,  1.62 
95,  3720.12,  3710.50,  9.44,  0.81 
96,  3756.06,  3748.12,  9.88,  0.88 
97,  3797.69,  3788.00,  10.19,  1.31 
98,  3836.06,  3825.94,  10.00,  1.50 
99,  3876.19,  3866.88,  9.19,  0.69 
100,  3894.50,  3882.00,  11.00,  2.12 
