* * * * * * * * * * * * * * * Reading complete, hit anykey to continue print 

Print Column in the following order: 

Duty, PD0, PE1, PD2, PD3 

refV = 3952
0,  10.12,  13.50,  3913.12,  5.75 
1,  42.69,  44.19,  3908.94,  5.19 
2,  79.19,  83.00,  3909.25,  4.38 
3,  116.06,  121.12,  3908.81,  5.06 
4,  153.25,  160.38,  3910.00,  5.00 
5,  192.94,  198.81,  3908.88,  4.50 
6,  236.69,  237.56,  3910.25,  4.88 
7,  277.31,  277.81,  3909.75,  5.56 
8,  317.06,  319.38,  3910.56,  5.12 
9,  357.19,  359.75,  3910.81,  4.81 
10,  398.19,  399.19,  3910.50,  4.94 
11,  435.12,  437.81,  3910.69,  4.88 
12,  474.38,  477.69,  3911.06,  5.38 
13,  513.00,  520.25,  3910.38,  5.38 
14,  552.19,  557.00,  3910.56,  6.00 
15,  590.94,  594.94,  3910.75,  5.00 
16,  630.44,  634.25,  3911.44,  4.69 
17,  671.25,  674.69,  3910.75,  5.94 
18,  711.69,  714.81,  3910.81,  3.56 
19,  752.06,  756.62,  3910.44,  4.81 
20,  792.94,  794.50,  3911.25,  5.00 
21,  830.25,  833.56,  3911.56,  5.06 
22,  868.75,  872.44,  3910.56,  6.56 
23,  905.56,  910.50,  3910.94,  22.56 
24,  941.31,  948.25,  3911.00,  61.75 
25,  979.12,  986.81,  3910.69,  137.44 
26,  1023.94,  1027.62,  3910.12,  279.94 
27,  1065.25,  1069.38,  3899.06,  505.81 
28,  1111.00,  1109.75,  3881.56,  829.50 
29,  1149.75,  1150.06,  3855.25,  1271.81 
30,  1190.31,  1188.81,  3827.94,  1846.81 
31,  1227.69,  1226.94,  3797.31,  2559.44 
32,  1266.75,  1266.25,  3763.12,  3241.94 
33,  1303.25,  1306.31,  3758.81,  3332.56 
34,  1340.44,  1344.44,  3757.81,  3360.12 
35,  1380.06,  1384.25,  3757.31,  3374.12 
36,  1419.56,  1424.50,  3756.50,  3383.50 
37,  1461.25,  1465.31,  3756.81,  3391.19 
38,  1509.50,  1506.25,  3754.75,  3393.94 
39,  1547.88,  1546.94,  3752.44,  3396.94 
40,  1587.50,  1586.50,  3753.62,  3399.44 
41,  1625.06,  1624.44,  3757.12,  3401.12 
42,  1663.31,  1662.50,  3756.62,  3403.56 
43,  1700.62,  1702.19,  3756.69,  3403.62 
44,  1737.69,  1740.94,  3757.00,  3404.38 
45,  1775.88,  1778.62,  3758.00,  3406.56 
46,  1814.56,  1817.38,  3757.00,  3406.12 
47,  1856.44,  1854.25,  3757.44,  3407.12 
48,  1900.12,  1900.81,  3758.19,  3407.62 
49,  1941.81,  1942.75,  3757.94,  3408.69 
50,  1982.75,  1980.44,  3757.81,  3408.44 
51,  2021.00,  2019.00,  3757.75,  3408.06 
52,  2060.00,  2058.19,  3758.00,  3408.81 
53,  2096.56,  2102.56,  3758.62,  3408.75 
54,  2134.12,  2136.88,  3758.56,  3409.94 
55,  2172.31,  2174.62,  3759.56,  3410.06 
56,  2211.56,  2213.94,  3759.06,  3409.31 
57,  2253.31,  2253.38,  3759.81,  3408.88 
58,  2295.44,  2294.19,  3758.81,  3411.12 
59,  2335.81,  2335.69,  3759.81,  3411.44 
60,  2374.94,  2374.31,  3760.75,  3410.56 
61,  2410.25,  2413.12,  3761.38,  3410.81 
62,  2447.56,  2451.06,  3761.81,  3411.69 
63,  2492.56,  2488.69,  3761.56,  3411.25 
64,  2530.94,  2526.75,  3761.31,  3411.62 
65,  2569.06,  2566.81,  3762.06,  3411.25 
66,  2606.44,  2606.62,  3761.44,  3412.38 
67,  2649.25,  2646.50,  3760.62,  3412.56 
68,  2690.31,  2687.69,  3760.12,  3412.12 
69,  2731.44,  2728.44,  3760.06,  3412.31 
70,  2770.50,  2767.75,  3762.44,  3411.88 
71,  2807.12,  2806.31,  3763.75,  3413.12 
72,  2845.00,  2843.81,  3763.00,  3412.06 
73,  2888.38,  2883.00,  3764.44,  3411.94 
74,  2925.75,  2920.44,  3763.94,  3412.19 
75,  2965.00,  2960.12,  3763.44,  3412.44 
76,  3005.88,  3001.12,  3763.88,  3411.94 
77,  3047.00,  3041.25,  3763.25,  3411.56 
78,  3086.88,  3082.44,  3763.38,  3411.94 
79,  3126.88,  3122.31,  3763.12,  3413.56 
80,  3167.00,  3161.69,  3763.38,  3413.19 
81,  3204.62,  3199.94,  3762.81,  3412.31 
82,  3243.94,  3239.06,  3764.00,  3413.44 
83,  3281.56,  3277.06,  3763.75,  3414.19 
84,  3319.50,  3315.38,  3764.75,  3413.06 
85,  3359.19,  3354.25,  3765.19,  3412.50 
86,  3398.06,  3393.00,  3764.88,  3412.12 
87,  3439.50,  3432.94,  3764.56,  3412.81 
88,  3479.44,  3475.25,  3764.06,  3413.56 
89,  3520.50,  3515.75,  3763.88,  3413.06 
90,  3561.19,  3556.06,  3763.31,  3412.81 
91,  3597.81,  3594.25,  3763.00,  3413.31 
92,  3637.62,  3633.25,  3763.50,  3414.06 
93,  3676.44,  3674.19,  3766.00,  3414.00 
94,  3715.19,  3713.19,  3766.81,  3413.31 
95,  3758.56,  3753.00,  3767.62,  3412.56 
96,  3797.44,  3791.94,  3767.62,  3414.31 
97,  3838.06,  3831.69,  3767.38,  3414.31 
98,  3876.06,  3870.75,  3767.44,  3414.12 
99,  3914.56,  3909.38,  3767.62,  3414.19 
100,  3937.56,  3927.50,  3767.62,  3415.56 
