* * * * * * * * * * * * * * * Reading complete, hit anykey to continue print 

Print Column in the following order: 

Duty, PD0, PE1, PD2, PD3 

refV = 3920
0,  9.62,  8.50,  3887.69,  1.25 
1,  42.88,  41.56,  3885.88,  1.69 
2,  79.19,  79.69,  3886.75,  1.50 
3,  118.19,  118.19,  3885.12,  1.94 
4,  155.69,  156.06,  3887.00,  0.94 
5,  196.44,  194.38,  3887.56,  1.06 
6,  234.38,  233.94,  3885.50,  1.19 
7,  276.12,  273.06,  3887.06,  1.81 
8,  314.69,  312.38,  3886.81,  2.12 
9,  354.56,  352.31,  3888.06,  1.12 
10,  394.25,  390.69,  3887.44,  1.50 
11,  432.81,  433.44,  3889.56,  6.88 
12,  471.44,  472.25,  3889.56,  41.44 
13,  510.19,  504.94,  3888.44,  202.69 
14,  547.75,  530.06,  3873.44,  594.94 
15,  586.88,  550.19,  3845.12,  1151.62 
16,  626.25,  568.62,  3814.00,  1776.44 
17,  665.12,  584.19,  3780.81,  2406.88 
18,  706.62,  599.56,  3756.19,  2901.19 
19,  748.50,  606.94,  3745.69,  3087.56 
20,  786.62,  613.69,  3740.06,  3208.75 
21,  826.62,  617.88,  3739.06,  3265.00 
22,  865.31,  618.75,  3736.69,  3286.06 
23,  902.31,  620.88,  3736.38,  3299.62 
24,  938.38,  620.69,  3736.75,  3311.62 
25,  975.19,  621.44,  3737.31,  3322.25 
26,  1016.44,  622.88,  3737.12,  3329.44 
27,  1060.94,  623.69,  3733.69,  3337.00 
28,  1100.75,  624.44,  3729.94,  3343.31 
29,  1141.44,  624.88,  3735.56,  3350.12 
30,  1179.12,  626.12,  3739.00,  3356.44 
31,  1219.25,  627.00,  3739.75,  3361.69 
32,  1258.12,  627.94,  3738.25,  3366.94 
33,  1294.88,  628.50,  3739.19,  3372.31 
34,  1330.75,  627.06,  3737.69,  3377.19 
35,  1368.25,  630.06,  3738.12,  3383.50 
36,  1411.44,  630.81,  3737.31,  3388.38 
37,  1453.62,  629.25,  3736.25,  3394.12 
38,  1491.94,  629.88,  3735.00,  3396.75 
39,  1532.62,  631.25,  3736.00,  3403.69 
40,  1572.31,  630.81,  3737.62,  3406.50 
41,  1611.31,  630.31,  3737.38,  3412.25 
42,  1649.31,  631.00,  3737.56,  3416.62 
43,  1686.25,  631.00,  3737.31,  3419.56 
44,  1722.62,  635.31,  3738.81,  3424.88 
45,  1760.75,  634.12,  3737.88,  3428.56 
46,  1799.12,  633.00,  3737.75,  3433.38 
47,  1840.50,  636.56,  3738.25,  3438.06 
48,  1882.12,  635.44,  3736.38,  3441.25 
49,  1924.25,  635.94,  3737.88,  3446.94 
50,  1965.31,  636.81,  3738.00,  3450.06 
51,  2002.12,  635.31,  3737.62,  3454.50 
52,  2042.12,  637.19,  3738.00,  3457.38 
53,  2078.75,  636.56,  3737.19,  3461.94 
54,  2115.75,  643.75,  3739.12,  3465.88 
55,  2153.75,  643.19,  3739.62,  3470.75 
56,  2191.81,  641.31,  3739.75,  3475.50 
57,  2232.62,  642.31,  3738.94,  3479.81 
58,  2275.12,  640.44,  3737.50,  3482.50 
59,  2315.75,  641.06,  3737.81,  3484.56 
60,  2354.19,  641.62,  3737.94,  3490.38 
61,  2393.31,  642.50,  3739.44,  3494.75 
62,  2430.44,  641.31,  3741.19,  3498.81 
63,  2466.38,  642.88,  3739.69,  3502.62 
64,  2507.81,  643.69,  3741.56,  3505.56 
65,  2545.50,  642.62,  3739.69,  3508.44 
66,  2584.31,  643.75,  3739.62,  3513.75 
67,  2625.25,  642.50,  3739.88,  3519.19 
68,  2668.31,  645.19,  3738.38,  3523.19 
69,  2708.88,  643.88,  3735.75,  3524.31 
70,  2746.38,  645.12,  3735.19,  3529.06 
71,  2784.62,  645.81,  3739.94,  3533.38 
72,  2823.06,  645.19,  3746.50,  3537.25 
73,  2858.12,  645.94,  3744.50,  3540.75 
74,  2899.69,  646.50,  3744.94,  3546.81 
75,  2939.56,  647.06,  3742.25,  3548.12 
76,  2975.88,  648.12,  3741.00,  3550.62 
77,  3016.94,  647.81,  3740.75,  3556.06 
78,  3058.12,  647.75,  3740.81,  3560.50 
79,  3097.50,  647.75,  3738.31,  3562.94 
80,  3137.69,  648.31,  3738.12,  3566.06 
81,  3175.12,  649.12,  3740.56,  3571.06 
82,  3214.56,  649.00,  3739.50,  3574.00 
83,  3252.31,  649.06,  3740.69,  3578.38 
84,  3291.19,  650.06,  3739.56,  3583.56 
85,  3329.75,  649.19,  3742.25,  3587.12 
86,  3367.12,  648.62,  3740.31,  3589.38 
87,  3407.12,  647.50,  3739.75,  3593.12 
88,  3446.50,  646.69,  3739.25,  3598.00 
89,  3488.44,  648.06,  3738.50,  3602.12 
90,  3528.12,  650.38,  3737.94,  3606.31 
91,  3564.50,  654.50,  3736.38,  3608.56 
92,  3604.62,  654.12,  3741.19,  3612.75 
93,  3641.75,  652.69,  3742.75,  3616.06 
94,  3682.94,  653.44,  3741.56,  3619.06 
95,  3722.44,  653.69,  3742.62,  3625.12 
96,  3763.25,  654.00,  3742.94,  3627.25 
97,  3800.75,  653.44,  3741.25,  3631.25 
98,  3839.00,  654.62,  3741.19,  3634.56 
99,  3867.38,  655.06,  3742.44,  3638.88 
100,  3869.88,  653.31,  3742.50,  3638.19 
