* * * * * * * * * * * * * * * * Reading complete, hit anykey to continue print 

Print Column in the following order: 

Duty, PD0, PE1, PD2, PD3 

refV = 3954
0,  8.62,  10.69,  3742.38,  3424.88 
1,  46.50,  49.88,  3744.56,  3423.31 
2,  82.00,  88.19,  3744.38,  3422.69 
3,  121.06,  127.12,  3745.19,  3423.06 
4,  157.50,  167.12,  3746.44,  3423.69 
5,  196.81,  204.81,  3745.06,  3422.06 
6,  239.69,  244.50,  3745.94,  3422.00 
7,  281.12,  283.81,  3745.75,  3422.75 
8,  321.00,  325.38,  3747.31,  3421.56 
9,  360.69,  364.88,  3745.31,  3421.38 
10,  400.88,  404.19,  3744.56,  3420.69 
11,  439.56,  443.44,  3743.56,  3419.31 
12,  477.62,  483.69,  3742.25,  3419.38 
13,  516.56,  526.25,  3741.50,  3417.62 
14,  555.19,  565.12,  3740.81,  3416.06 
15,  594.81,  603.31,  3737.94,  3414.00 
16,  633.88,  641.25,  3735.25,  3410.12 
17,  674.62,  680.94,  3730.25,  3406.00 
18,  715.19,  719.44,  3720.75,  3397.88 
19,  756.00,  759.38,  3705.69,  3384.06 
20,  795.88,  798.25,  3653.25,  3336.75 
21,  833.50,  837.81,  3331.75,  3041.06 
22,  871.31,  876.81,  2860.25,  2609.31 
23,  907.38,  915.06,  2408.62,  2194.62 
24,  943.38,  953.19,  1988.69,  1808.44 
25,  980.38,  991.88,  1610.19,  1460.75 
26,  1024.44,  1031.44,  1261.06,  1141.44 
27,  1066.75,  1070.44,  957.94,  865.38 
28,  1112.19,  1110.62,  705.44,  634.88 
29,  1151.50,  1150.62,  500.81,  448.88 
30,  1190.94,  1189.38,  344.56,  305.31 
31,  1228.88,  1228.69,  236.06,  199.56 
32,  1266.19,  1268.12,  155.44,  126.38 
33,  1303.25,  1307.00,  100.50,  75.75 
34,  1340.88,  1347.12,  64.25,  43.38 
35,  1379.44,  1385.94,  41.75,  23.19 
36,  1418.88,  1425.62,  27.50,  10.44 
37,  1460.50,  1465.44,  19.12,  7.69 
38,  1508.94,  1503.56,  12.88,  8.19 
39,  1546.69,  1544.38,  10.50,  8.00 
40,  1587.06,  1582.94,  10.75,  7.31 
41,  1624.44,  1621.25,  11.81,  7.81 
42,  1662.69,  1660.94,  11.31,  9.12 
43,  1699.19,  1701.12,  11.81,  7.44 
44,  1736.31,  1741.50,  12.25,  7.69 
45,  1774.81,  1779.44,  12.38,  6.94 
46,  1813.62,  1817.75,  12.50,  7.88 
47,  1855.50,  1854.19,  12.62,  8.12 
48,  1898.31,  1898.69,  12.62,  8.12 
49,  1939.50,  1938.19,  12.25,  8.06 
50,  1980.62,  1976.69,  12.38,  7.62 
51,  2019.94,  2016.31,  13.06,  8.06 
52,  2058.94,  2055.50,  12.69,  8.44 
53,  2095.00,  2101.88,  12.88,  7.25 
54,  2132.75,  2138.00,  13.75,  8.38 
55,  2171.19,  2176.38,  13.31,  7.56 
56,  2210.06,  2214.44,  13.00,  7.56 
57,  2251.75,  2252.62,  13.12,  7.94 
58,  2293.81,  2293.62,  13.19,  7.19 
59,  2334.56,  2332.19,  13.06,  8.12 
60,  2373.56,  2371.44,  15.12,  8.12 
61,  2409.19,  2410.38,  15.06,  7.19 
62,  2446.06,  2449.31,  14.88,  8.00 
63,  2491.31,  2488.38,  14.88,  8.69 
64,  2528.75,  2527.38,  15.12,  7.94 
65,  2567.56,  2567.31,  14.50,  7.69 
66,  2605.50,  2606.81,  14.62,  7.69 
67,  2647.75,  2646.62,  13.88,  7.94 
68,  2689.69,  2686.50,  13.56,  8.19 
69,  2730.19,  2725.25,  12.94,  8.62 
70,  2769.31,  2764.94,  15.88,  8.19 
71,  2806.12,  2803.56,  17.25,  8.44 
72,  2843.75,  2842.31,  16.81,  8.50 
73,  2886.25,  2882.31,  18.00,  7.88 
74,  2923.75,  2921.00,  17.19,  7.69 
75,  2963.81,  2960.19,  17.06,  8.44 
76,  3004.19,  2999.94,  16.75,  8.44 
77,  3045.50,  3040.06,  16.31,  8.50 
78,  3085.88,  3079.94,  14.75,  7.31 
79,  3125.62,  3118.62,  15.88,  8.56 
80,  3165.19,  3158.12,  15.50,  7.81 
81,  3203.06,  3197.50,  15.88,  7.75 
82,  3241.62,  3236.38,  16.12,  10.00 
83,  3279.75,  3275.62,  17.06,  7.56 
84,  3317.38,  3314.94,  16.62,  8.00 
85,  3357.31,  3352.62,  16.88,  8.75 
86,  3395.69,  3391.56,  16.94,  8.06 
87,  3437.69,  3429.69,  17.12,  8.06 
88,  3477.56,  3472.69,  16.56,  8.19 
89,  3518.00,  3512.56,  16.50,  7.88 
90,  3558.56,  3551.75,  15.31,  7.88 
91,  3595.75,  3591.75,  15.25,  8.31 
92,  3634.81,  3630.62,  17.06,  8.00 
93,  3674.50,  3672.19,  18.19,  8.50 
94,  3712.56,  3711.06,  18.50,  7.94 
95,  3756.56,  3749.94,  19.31,  8.06 
96,  3795.31,  3789.81,  19.38,  7.81 
97,  3835.88,  3828.56,  19.75,  8.06 
98,  3874.94,  3867.88,  19.06,  8.50 
99,  3912.12,  3906.75,  19.25,  8.50 
100,  3934.31,  3923.38,  18.75,  8.88 
