* * * * * * * * * * * * * * Reading complete, hit anykey to continue print ,,,
,,,,
Print Column in the following order: ,,,,
,,,,
Duty, PD0, PE1, PD2, PD3 
,,,,
refV = 3949,,,,
0,8.06,9.69,3747.31,3422.56
1,44.31,46.5,3746.06,3422.06
2,79.38,84.69,3745.25,3421.38
3,119.12,124.19,3747.62,3421.62
4,155.81,164.19,3747.38,3421.44
5,193.81,203,3747.25,3422
6,236.75,241.25,3748.06,3420.38
7,279,281.31,3746.81,3420.06
8,318.19,320,3747.81,3420.06
9,358.81,361.81,3748.56,3418.88
10,399,400.5,3749.62,3418.69
11,436.69,440.5,3750.88,3417.94
12,475.5,484.62,3749.69,3417.69
13,513.94,522.25,3749.81,3416.38
14,552.81,560.44,3749.19,3414.62
15,591.94,599.56,3750.06,3412.88
16,631,638.94,3750.12,3409.06
17,672.31,677.25,3750.19,3404.81
18,712.81,717.12,3750.81,3397.38
19,753.69,756.06,3750.38,3383.44
20,793.81,795.5,3753.75,3338.5
21,831.06,834.62,3767.69,3060.38
22,869.31,873.38,3790.56,2628
23,906.5,912.88,3812.31,2209.44
24,942.75,952,3832.38,1821.25
25,978.94,990.38,3850.25,1474.31
26,1020.75,1029.75,3867.25,1152.12
27,1069.56,1069.19,3879.69,875.06
28,1109,1108.5,3889.88,641.88
29,1148.62,1147.62,3897.94,453.75
30,1187.25,1187.12,3906.25,308.5
31,1225.81,1226.25,3909.38,201.38
32,1264.75,1265.44,3913.06,126.06
33,1300.75,1304.44,3912.69,74.75
34,1338.38,1344.12,3912.25,42.25
35,1376.62,1383.38,3913.19,21.19
36,1415.62,1422.69,3911.19,8.5
37,1467.25,1462.62,3912.06,4.5
38,1504.88,1502.19,3911.06,4.38
39,1544.56,1541.06,3910.69,4.19
40,1584.5,1580.38,3909.25,4.06
41,1621.12,1618.31,3911.38,3.81
42,1660.44,1657.25,3912.69,3.94
43,1697.88,1696.12,3913.88,4.31
44,1733.88,1738,3913.69,4
45,1773.44,1778.06,3912.44,4.31
46,1811.38,1818.25,3913.44,3.69
47,1853.81,1859.44,3913.75,3.94
48,1897.25,1898.19,3914.06,3.94
49,1938.44,1936.94,3914.38,3.81
50,1979.25,1975.5,3913.31,3.88
51,2018.12,2014.56,3914.12,4.38
52,2056.75,2053,3914.69,4.06
53,2094,2091.81,3914.5,4.12
54,2132.06,2135.12,3914.81,4.56
55,2170.31,2178.56,3915.31,4.06
56,2207.56,2216.75,3915.5,4.44
57,2251.38,2255.81,3914.81,3.94
58,2293,2293.19,3915.19,4.62
59,2334,2331.38,3917.62,4.19
60,2373.69,2370.62,3918.19,3.88
61,2409.31,2409.81,3917.38,3.69
62,2446.44,2448.62,3916.44,4.19
63,2483.75,2488.19,3917.5,4.31
64,2527.81,2527.25,3917.19,4.25
65,2566.19,2566.75,3916.62,4.56
66,2604.62,2606.81,3916.94,3.88
67,2646.88,2646.06,3916.69,4.69
68,2688.94,2685.56,3915.31,4.56
69,2729.06,2724.81,3917.06,4
70,2768.56,2763.69,3918.88,4.06
71,2806.19,2803.56,3920.19,3.88
72,2844.5,2842.5,3920.62,3.62
73,2880.5,2881.62,3920.94,3.88
74,2923.75,2921.25,3920.5,4.06
75,2963.56,2960.88,3919.69,4.25
76,3002.56,3000.06,3919.06,4.38
77,3044.31,3040.5,3919.75,4.19
78,3084.69,3080.19,3919.62,4
79,3125.62,3119.5,3919.62,3.75
80,3164.94,3159.31,3919.88,4.25
81,3202,3198.25,3920.38,3.62
82,3241.81,3237.12,3920.19,4
83,3280.31,3277,3921.19,4.25
84,3318.56,3316.12,3920.81,4.38
85,3357.31,3354.94,3921.38,4.56
86,3396.5,3393.12,3920.5,4.44
87,3438.75,3431.5,3919.81,4.69
88,3479.94,3470.62,3919.38,4.38
89,3519.12,3514.19,3919,4.81
90,3559.31,3553.44,3918.38,4.25
91,3596.5,3593.5,3920.94,4.5
92,3635.62,3634.69,3921.88,4.88
93,3675.25,3673.94,3923.44,4.38
94,3715.81,3713.38,3923.19,4.69
95,3757.62,3752.38,3924.38,4.06
96,3795.19,3791.31,3923.94,4.75
97,3836.62,3831.19,3923.12,4.62
98,3875.88,3870.31,3924.19,4.5
99,3914.69,3909.25,3923.94,4.38
100,3936.06,3926.38,3925.25,4.75
