* * * * * * * * * * * * * * Reading complete, hit anykey to continue print 

Print Column in the following order: 

Duty, PD0, PE1, PD2, PD3 

refV = 3952
0,  8.38,  5.50,  3.75,  5.81 
1,  44.31,  3.12,  2.06,  5.88 
2,  79.00,  4.00,  1.31,  6.25 
3,  118.38,  2.94,  2.06,  6.56 
4,  156.06,  3.06,  1.88,  5.00 
5,  193.06,  3.12,  2.19,  5.81 
6,  237.12,  2.81,  2.06,  5.81 
7,  279.00,  3.69,  2.25,  5.69 
8,  318.75,  3.69,  2.44,  5.12 
9,  358.19,  4.31,  2.94,  5.56 
10,  398.00,  4.19,  4.31,  5.38 
11,  436.56,  4.44,  5.31,  5.81 
12,  475.50,  8.56,  4.19,  5.88 
13,  514.56,  7.81,  4.44,  5.44 
14,  553.12,  6.56,  3.75,  6.25 
15,  592.31,  6.38,  3.62,  6.06 
16,  631.00,  5.31,  3.81,  5.56 
17,  672.06,  5.25,  3.38,  5.81 
18,  712.75,  4.94,  3.38,  5.62 
19,  754.00,  4.62,  3.38,  5.88 
20,  793.38,  5.25,  2.81,  6.12 
21,  830.81,  5.00,  3.38,  6.31 
22,  870.06,  5.00,  3.69,  6.38 
23,  907.44,  5.44,  3.81,  5.69 
24,  944.06,  5.50,  3.75,  5.81 
25,  979.69,  5.31,  3.75,  6.75 
26,  1023.19,  5.69,  4.06,  6.00 
27,  1070.00,  5.19,  3.38,  5.94 
28,  1110.69,  5.69,  3.12,  6.31 
29,  1150.38,  5.69,  3.19,  5.75 
30,  1189.38,  5.50,  7.06,  5.94 
31,  1227.12,  5.62,  7.19,  6.06 
32,  1266.12,  5.62,  6.44,  5.81 
33,  1303.06,  5.81,  4.94,  6.25 
34,  1339.56,  5.62,  5.50,  5.75 
35,  1378.50,  5.69,  5.50,  6.44 
36,  1417.56,  5.81,  4.88,  6.19 
37,  1467.56,  6.19,  4.75,  5.75 
38,  1507.19,  5.75,  5.50,  5.88 
39,  1546.25,  5.50,  4.38,  5.50 
40,  1586.06,  5.06,  4.00,  6.31 
41,  1623.38,  4.81,  4.62,  5.81 
42,  1662.06,  5.25,  5.19,  5.50 
43,  1699.06,  5.31,  6.06,  5.50 
44,  1736.19,  6.12,  6.00,  6.12 
45,  1774.94,  10.50,  6.00,  6.44 
46,  1812.81,  9.12,  6.31,  6.00 
47,  1856.00,  8.62,  5.88,  6.25 
48,  1899.00,  8.50,  6.06,  6.06 
49,  1940.81,  7.38,  6.06,  5.81 
50,  1981.31,  7.00,  6.19,  6.25 
51,  2019.06,  6.69,  6.62,  5.94 
52,  2058.44,  6.56,  7.94,  6.31 
53,  2096.38,  6.94,  8.25,  5.81 
54,  2132.50,  7.50,  8.12,  5.81 
55,  2171.06,  15.25,  8.38,  6.56 
56,  2209.81,  13.19,  8.50,  6.06 
57,  2252.12,  11.62,  8.75,  6.19 
58,  2294.56,  9.88,  8.94,  5.44 
59,  2334.62,  8.88,  9.69,  5.94 
60,  2374.25,  8.69,  11.44,  5.94 
61,  2409.69,  8.50,  10.94,  6.25 
62,  2446.44,  8.38,  10.94,  5.50 
63,  2486.75,  8.25,  11.88,  5.75 
64,  2528.06,  7.88,  13.00,  5.69 
65,  2565.94,  7.94,  12.50,  6.19 
66,  2605.06,  8.38,  12.19,  5.94 
67,  2647.50,  7.88,  13.00,  5.75 
68,  2689.00,  8.38,  13.06,  5.88 
69,  2730.06,  8.44,  14.12,  5.81 
70,  2769.44,  8.56,  17.06,  5.44 
71,  2805.50,  8.81,  17.88,  5.88 
72,  2844.06,  8.62,  19.50,  4.94 
73,  2881.06,  8.62,  20.00,  5.19 
74,  2923.50,  8.69,  18.81,  6.56 
75,  2964.12,  8.50,  18.62,  4.69 
76,  3002.19,  9.31,  19.62,  5.75 
77,  3044.50,  8.88,  19.81,  5.50 
78,  3084.50,  8.69,  19.62,  4.94 
79,  3125.25,  8.50,  20.44,  5.56 
80,  3164.88,  9.50,  20.06,  5.44 
81,  3202.00,  9.81,  21.62,  5.25 
82,  3241.94,  9.31,  22.44,  5.69 
83,  3278.81,  9.88,  22.81,  4.88 
84,  3318.00,  9.38,  23.81,  7.44 
85,  3356.38,  9.00,  23.12,  5.50 
86,  3394.62,  8.69,  23.44,  5.94 
87,  3438.12,  8.50,  23.81,  5.62 
88,  3478.06,  9.12,  23.88,  5.50 
89,  3518.12,  10.88,  24.12,  5.25 
90,  3557.75,  9.81,  24.00,  5.44 
91,  3595.38,  9.88,  26.75,  5.69 
92,  3634.31,  12.12,  28.12,  4.94 
93,  3674.44,  11.94,  29.38,  5.31 
94,  3713.25,  12.31,  29.81,  5.00 
95,  3755.75,  11.19,  30.06,  5.50 
96,  3793.50,  11.69,  30.94,  5.75 
97,  3834.62,  12.00,  31.62,  5.19 
98,  3873.12,  11.44,  32.25,  5.50 
99,  3894.69,  11.06,  32.31,  5.88 
100,  3898.94,  10.88,  34.19,  6.25 
