* * * * * * * * * * * * * * * Reading complete, hit anykey to continue print ,,,
,,,,
Print Column in the following order: ,,,,
,,,,
Duty, PD0, PE1, PD2, PD3 
,,,,
refV = 3921,,,,
0,33.75,3085.06,3725.12,3322.25
1,45.62,3084.88,3724.88,3323.88
2,82.94,3085.88,3726.12,3322.44
3,121.88,3085,3727.94,3323.25
4,159.5,3086.88,3727.5,3322.69
5,196.88,3088.12,3729.75,3324.56
6,238.69,3086.31,3728.81,3322.69
7,279.06,3087.44,3728.44,3322.56
8,318.31,3088.75,3729,3321.69
9,358.94,3090.69,3729.19,3321.94
10,398.06,3090.69,3729.94,3323.06
11,436.75,3091.81,3731.31,3322.56
12,474.44,3093.5,3729.88,3322.75
13,513.81,3096.5,3729.62,3321.62
14,551.81,3097.12,3730,3321.19
15,591.38,3095.62,3731.06,3320.12
16,630,3094.88,3731.38,3320.31
17,668.75,3093.69,3730.19,3321.25
18,709.44,3094.56,3729.81,3319.44
19,750.06,3096.75,3730.62,3320.12
20,789.38,3097.5,3731.06,3319.69
21,827.69,3097.5,3731.38,3318.62
22,866.19,3097.19,3732.06,3321.5
23,902.44,3098,3732.81,3320
24,940.25,3098.62,3732.31,3319.81
25,975.69,3099.75,3732.06,3318.69
26,1018.06,3099.25,3732.75,3318
27,1060,3100.81,3733.25,3319
28,1102.25,3101.31,3731.81,3318.94
29,1142.25,3101.44,3728.5,3317.75
30,1181.31,3101.81,3727.94,3316.69
31,1221,3104.31,3737.25,3317.75
32,1258.81,3104.75,3737.44,3318.06
33,1293.81,3103.31,3735.44,3317.44
34,1330.31,3103.44,3734.81,3316.5
35,1370.75,3105.12,3736.69,3315.88
36,1407.94,3105.62,3735.88,3314.94
37,1453.12,3105.75,3736.38,3314.06
38,1494.44,3105.81,3735.12,3314.75
39,1534,3106.5,3733.06,3314.88
40,1575.19,3108.06,3733.44,3313.25
41,1613.62,3108,3736.56,3312.38
42,1651.25,3109.56,3739.25,3312.38
43,1687.5,3109.94,3738.5,3311.25
44,1723.25,3110.56,3739.44,3311.75
45,1762.69,3111.31,3738.44,3310.94
46,1801.25,3110.56,3738.56,3309.81
47,1841.69,3109.19,3739.5,3308.25
48,1883.81,3110.75,3740.44,3308.62
49,1925.44,3113.62,3740.56,3308.44
50,1966.19,3114.06,3739.19,3306.38
51,2004.44,3115.12,3740.5,3306
52,2043.56,3119.5,3740,3304.75
53,2079.75,3123.62,3741.12,3304.5
54,2115.88,3121.44,3742.12,3303.44
55,2154.5,3121,3742.56,3302.81
56,2193.25,3120.81,3742.81,3301.31
57,2234.56,3119.69,3743.56,3299.38
58,2275.94,3119.88,3742.81,3296.25
59,2316.62,3123.06,3743.56,3296.69
60,2356.25,3123.81,3745.5,3295
61,2392.69,3124.75,3745.75,3293.12
62,2430.19,3125.31,3745,3289.75
63,2469.19,3125.19,3745.62,3286.31
64,2508.75,3128.06,3746.88,3284.88
65,2546.69,3127.25,3746.25,3281.94
66,2586.31,3130.12,3746.94,3278.62
67,2625.94,3131,3744.94,3273.31
68,2668.25,3133.69,3746.38,3267.06
69,2708.62,3135,3746.94,3261.06
70,2747.06,3136.19,3751.06,3253.81
71,2785.75,3138.75,3751.69,3241.44
72,2823.56,3142.06,3751.06,3225.94
73,2861.75,3146.31,3753.31,3204.25
74,2901,3150.56,3756.12,3178.88
75,2939.81,3154.69,3756.88,3142.56
76,2978.44,3161.75,3760.62,3073.38
77,3020.5,3173.81,3767.88,2917.94
78,3058.44,3190.25,3779.44,2673.19
79,3100.25,3208.75,3793.94,2400.88
80,3138.38,3229.12,3810.62,2113.06
81,3176.69,3249.31,3827.06,1809.69
82,3216.31,3270.62,3841.88,1484.56
83,3254,3292.56,3857.19,1151.12
84,3293.12,3317.25,3875.69,822.5
85,3330.5,3341.75,3891.31,514.81
86,3367.44,3369.62,3901.12,246.5
87,3410.25,3401.75,3900.31,73.94
88,3448.38,3440,3899.31,12.38
89,3488.88,3481.88,3899.62,1.75
90,3527.06,3519.56,3898.88,2.44
91,3566.56,3561.19,3899.25,2.19
92,3606.81,3599.12,3898.5,2.19
93,3645.25,3639.69,3901.38,2.44
94,3684.31,3678.25,3901.75,2.38
95,3725.88,3717.88,3904.5,2.56
96,3763.81,3756.81,3904.5,1.56
97,3803.31,3793.19,3901.88,2.31
98,3842.12,3833.38,3903.25,1.69
99,3881.88,3872.12,3902.5,2.06
100,3898.94,3888.5,3904.19,1.5
