* * * * * * * * * * * * * * * * Reading complete, hit anykey to continue print 

Print Column in the following order: 

Duty, PD0, PE1, PD2, PD3 

refV = 3946
0,  7.25,  7.94,  3909.44,  4.00 
1,  41.88,  42.69,  3906.19,  4.44 
2,  77.06,  81.38,  3907.12,  4.38 
3,  116.00,  120.12,  3908.12,  4.31 
4,  152.69,  159.94,  3908.69,  3.69 
5,  191.44,  198.06,  3908.19,  3.94 
6,  233.69,  236.50,  3907.94,  3.75 
7,  276.75,  276.75,  3908.62,  4.06 
8,  316.12,  316.69,  3909.00,  3.19 
9,  355.75,  357.94,  3908.69,  4.19 
10,  395.69,  397.00,  3910.12,  3.81 
11,  433.94,  436.12,  3911.00,  3.88 
12,  472.31,  480.69,  3911.75,  3.50 
13,  512.06,  518.31,  3909.88,  3.81 
14,  549.88,  555.62,  3910.50,  3.69 
15,  589.88,  593.88,  3909.69,  4.12 
16,  628.81,  632.94,  3909.94,  3.50 
17,  669.81,  672.56,  3909.25,  4.31 
18,  710.44,  713.62,  3909.06,  3.94 
19,  751.12,  754.06,  3908.88,  4.44 
20,  791.31,  793.69,  3909.56,  3.75 
21,  828.25,  832.12,  3909.94,  3.75 
22,  867.38,  871.25,  3907.75,  4.50 
23,  905.19,  909.19,  3887.12,  20.81 
24,  941.19,  947.50,  3844.69,  61.19 
25,  978.44,  985.62,  3761.25,  137.31 
26,  1019.88,  1026.50,  3598.81,  281.31 
27,  1068.31,  1067.50,  3331.31,  509.12 
28,  1108.19,  1109.12,  2946.50,  836.25 
29,  1147.75,  1149.00,  2428.06,  1280.81 
30,  1187.38,  1186.50,  1787.56,  1857.31 
31,  1224.31,  1225.00,  1007.44,  2571.06 
32,  1263.06,  1263.56,  250.12,  3242.88 
33,  1299.75,  1302.69,  148.06,  3332.50 
34,  1336.75,  1340.75,  118.75,  3359.75 
35,  1375.44,  1379.50,  102.06,  3374.19 
36,  1414.44,  1420.12,  90.38,  3382.75 
37,  1466.69,  1460.88,  82.69,  3389.69 
38,  1503.25,  1501.25,  77.75,  3393.94 
39,  1543.25,  1541.75,  72.69,  3397.25 
40,  1583.38,  1580.94,  68.94,  3398.19 
41,  1619.94,  1618.44,  69.69,  3401.44 
42,  1658.25,  1656.12,  69.75,  3403.38 
43,  1695.44,  1693.94,  68.69,  3403.06 
44,  1732.88,  1733.31,  68.31,  3404.00 
45,  1771.56,  1773.50,  66.75,  3404.50 
46,  1809.50,  1814.56,  66.31,  3406.12 
47,  1852.25,  1855.56,  66.06,  3406.25 
48,  1894.75,  1895.88,  65.62,  3407.12 
49,  1936.38,  1936.19,  65.38,  3407.06 
50,  1977.44,  1975.25,  64.94,  3408.38 
51,  2015.56,  2013.12,  64.44,  3407.00 
52,  2055.31,  2050.62,  64.88,  3408.69 
53,  2092.44,  2088.38,  64.31,  3407.81 
54,  2129.06,  2129.56,  64.75,  3409.06 
55,  2167.50,  2172.94,  64.25,  3409.75 
56,  2206.62,  2211.25,  63.94,  3409.44 
57,  2248.94,  2252.12,  64.00,  3409.75 
58,  2290.75,  2290.94,  63.81,  3409.31 
59,  2331.44,  2331.25,  65.69,  3409.56 
60,  2371.56,  2369.81,  66.25,  3411.50 
61,  2407.44,  2407.31,  64.56,  3409.19 
62,  2442.88,  2445.69,  65.06,  3410.75 
63,  2481.31,  2483.25,  64.25,  3411.12 
64,  2524.94,  2520.94,  64.94,  3411.69 
65,  2563.44,  2561.06,  63.12,  3410.31 
66,  2601.69,  2601.31,  63.00,  3411.06 
67,  2644.25,  2642.06,  62.38,  3410.94 
68,  2686.50,  2681.75,  62.12,  3411.94 
69,  2727.69,  2723.69,  63.38,  3412.00 
70,  2765.88,  2762.88,  63.69,  3411.88 
71,  2802.75,  2801.06,  65.69,  3411.56 
72,  2840.88,  2838.69,  66.56,  3411.25 
73,  2878.25,  2877.25,  66.25,  3411.25 
74,  2920.75,  2915.06,  65.88,  3412.38 
75,  2960.38,  2955.50,  65.31,  3412.06 
76,  2998.88,  2995.50,  65.12,  3412.50 
77,  3041.50,  3034.69,  65.81,  3413.00 
78,  3082.38,  3076.56,  64.50,  3411.31 
79,  3121.38,  3116.88,  64.81,  3412.19 
80,  3160.81,  3156.38,  64.38,  3412.19 
81,  3199.25,  3194.38,  65.19,  3412.31 
82,  3239.31,  3233.69,  64.81,  3411.94 
83,  3277.38,  3272.56,  64.94,  3412.06 
84,  3315.06,  3310.75,  65.38,  3413.94 
85,  3353.31,  3349.19,  65.38,  3414.19 
86,  3392.44,  3388.62,  64.81,  3412.25 
87,  3435.50,  3427.62,  63.69,  3411.75 
88,  3475.19,  3467.69,  63.94,  3412.31 
89,  3515.88,  3509.50,  63.88,  3412.94 
90,  3555.69,  3550.00,  62.19,  3412.81 
91,  3592.62,  3589.06,  64.19,  3412.75 
92,  3632.00,  3629.62,  66.25,  3412.56 
93,  3670.56,  3668.31,  66.56,  3413.00 
94,  3712.06,  3708.06,  66.44,  3412.69 
95,  3754.31,  3747.38,  66.56,  3411.88 
96,  3791.00,  3787.69,  66.56,  3412.38 
97,  3832.69,  3826.06,  67.12,  3413.81 
98,  3872.56,  3864.81,  66.81,  3413.38 
99,  3910.25,  3904.12,  67.12,  3413.75 
100,  3932.31,  3922.69,  67.12,  3412.81 
